<?xml version="1.0" encoding="UTF-8"?>
<svg xmlns="http://www.w3.org/2000/svg" xmlns:xlink="http://www.w3.org/1999/xlink" width="15pt" height="15pt" viewBox="0 0 15 15" version="1.1">
<g id="surface1">
<path style=" stroke:none;fill-rule:nonzero;fill:rgb(100%,100%,100%);fill-opacity:1;" d="M 7.609375 3.761719 L 8.792969 6.671875 L 9.777344 6.757812 L 11.804688 6.933594 L 9.515625 9.003906 L 9.738281 10.015625 L 10.195312 12.074219 L 8.457031 10.980469 L 7.609375 10.433594 L 6.765625 10.964844 L 5.023438 12.058594 L 5.484375 9.996094 L 5.707031 8.988281 L 3.414062 6.917969 L 5.441406 6.738281 L 6.429688 6.652344 L 6.8125 5.703125 Z M 8.164062 0.734375 C 7.957031 0.222656 7.265625 0.222656 7.058594 0.734375 L 5.304688 5.046875 L 0.816406 5.441406 C 0.289062 5.488281 0.0742188 6.175781 0.476562 6.535156 L 3.882812 9.613281 L 2.859375 14.183594 C 2.738281 14.722656 3.300781 15.144531 3.753906 14.859375 L 7.609375 12.433594 L 11.46875 14.859375 C 11.921875 15.144531 12.480469 14.722656 12.363281 14.183594 L 11.339844 9.613281 L 14.746094 6.535156 C 15.148438 6.175781 14.933594 5.488281 14.402344 5.441406 L 9.917969 5.046875 Z M 8.164062 0.734375 "/>
</g>
</svg>
