<svg width="25" height="25" viewBox="0 0 25 25" fill="none" xmlns="http://www.w3.org/2000/svg">
<circle cx="12.5" cy="12.5" r="12.5" fill="#EBF7FF"/>
<path d="M12.3102 19.6061C16.3475 19.6061 19.6204 16.3364 19.6204 12.303C19.6204 8.26969 16.3475 5 12.3102 5C8.27289 5 5 8.26969 5 12.303C5 16.3364 8.27289 19.6061 12.3102 19.6061Z" stroke="#73170C" stroke-width="1.3" stroke-miterlimit="10" stroke-linecap="round" stroke-linejoin="round"/>
<path d="M12.3103 8.18909V12.3031H16.1644" stroke="#73170C" stroke-width="1.3" stroke-miterlimit="10" stroke-linecap="round" stroke-linejoin="round"/>
</svg>
