<svg width="24" height="24" viewBox="0 0 24 24" fill="none" xmlns="http://www.w3.org/2000/svg">
<circle cx="12" cy="12" r="12" fill="white"/>
<path d="M18.3658 14.8218L17.2819 13.739C16.6581 13.1158 15.6484 13.1158 15.0285 13.739L14.4437 14.3233C13.6639 15.1022 12.4046 15.1022 11.6249 14.3233L9.30118 12.0019C8.52142 11.2229 8.52142 9.96478 9.30118 9.18578L9.88599 8.60154C10.5098 7.97834 10.5098 6.96956 9.88599 6.35026L8.80212 5.26745C8.17832 4.64425 7.16855 4.64425 6.54865 5.26745C4.21718 7.59664 4.21718 11.3748 6.54865 13.704C7.39078 14.5453 9.07896 16.2318 9.92109 17.0731C12.2526 19.4023 16.0344 19.4023 18.3658 17.0731C18.9857 16.4499 18.9857 15.4411 18.3658 14.8218Z" stroke="#8A1002" stroke-width="1.3" stroke-miterlimit="10" stroke-linecap="round" stroke-linejoin="round"/>
</svg>
