{
	"disclosure-layout#minha-conta-mob": {
		"children": ["disclosure-trigger#minha-conta-mob", "disclosure-content#minha-conta-mob"]
	  },
	  "disclosure-trigger#minha-conta-mob": {
		"children": ["rich-text#minha-conta-title","disclosure-state-indicator"],
		"props": {
			"blockClass": "disclosure-title-footer",
			"as": "div"
		}
	  },
	  "disclosure-content#minha-conta-mob": {
		"children": ["rich-text#footer-menu-items3"],
		"props": {
			"blockClass": "disclosure-title-footer-mob"
		}
	  },
	  "rich-text#minha-conta-title": {
		"props": {
		  "text": "Sobre nós"
		}
	  },

	  "disclosure-layout#info-mob": {
		"children": ["disclosure-trigger#info-mob", "disclosure-content#info-mob"]
	  },
	  "disclosure-trigger#info-mob": {
		"children": ["rich-text#info-title","disclosure-state-indicator"],
		"props": {
			"blockClass": "disclosure-title-footer",
			"as": "div"
		}
	  },
	  "disclosure-content#info-mob": {
		"children": ["rich-text#footer-menu-items2"],
		"props": {
			"blockClass": "disclosure-title-footer-mob"
		}
	  },
	  "rich-text#info-title": {
		"props": {
		  "text": "Ajuda e Suporte"
		}
	  },
	
	  "disclosure-state-indicator": {
		"props": {
		  "Show": "icon-caret#down",
		  "Hide": "icon-caret#up"
		}
	  },
	  "icon-caret#down": {
		"props": {
		  "orientation": "down"
		}
	  },
	  "icon-caret#up": {
		"props": {
		  "orientation": "up"
		}
	  }
}