{
  "store.custom#contato": {
    "blocks": ["flex-layout.row#contato"]
  },
  "flex-layout.row#contato": {
    "children": ["flex-layout.col#contato"],
    "props": {
      "marginBottom": 6,
      "blockClass": [
        "form-contato",
        "pg-institucional"
      ]
    }
  },
  "flex-layout.col#contato": {
    "children": ["rich-text#contato","flex-layout.row#contato-form"]
  },
  "flex-layout.row#contato-form": {
    "children": ["form"],
    "props": {
      "marginBottom": 6,
      "blockClass": [
        "flex-contato",
        "pg-institucional"
      ]
    }
  },
  
  "rich-text#contato": {
    "props": {
      "textPosition": "CENTER",
      "text": "![Icon imgtitle](assets/svg/imgtitle.svg) Contato",
      "blockClass": "titulosvitrine"
    }
  },
  "form": {
    "props": {
      "entity": "CO",
      "schema": "Contato"
    },
    "children": [
      "form-input.text#nome",
      "form-input.text#email",
      "form-input.text#telefone",
      "form-input.textarea#mensagem",
      "form-submit"
    ],
    "blocks": ["form-success"]
  },
  "form-success": {
    "children": [
      "rich-text#successSubmit"
    ]
  },
  "rich-text#successSubmit": {
    "props": {
      "text": "Formulário enviado com sucesso!",
      "textAlignment": "CENTER",
      "textPosition": "CENTER"
    }
  },
  "form-input.text#nome": {
    "props": {
      "pointer": "#/properties/nome"
    }
  },
  "form-input.text#email":{
    "props": {
      "pointer": "#/properties/email"
    }
  },
  "form-input.text#telefone": {
    "props": {
      "pointer": "#/properties/telefone"
    }
  },
  "form-input.textarea#mensagem": {
    "props": {
      "pointer": "#/properties/mensagem"
    }
  },
  "form-submit": {
    "props": {
      "label": "Enviar"
    }
  }
}