{
  "store.home": {
    "blocks": ["responsive-layout.desktop", "responsive-layout.mobile"]
  },
  "responsive-layout.desktop": {
    "children": [
      "list-context.image-list#bannerprincipal",
      "flex-layout.row#mini-banners-ambientes",
      "flex-layout.row#shelf01",
      "flex-layout.row#shelf02",
      "flex-layout.row#shelf03",
      "flex-layout.row#category",
      "flex-layout.row#bannerfull",
      "flex-layout.row#shelf04",
      "flex-layout.row#shelf05",
      "flex-layout.row#map-home"
      /*"rich-text#titulovitrinebrand",
      "flex-layout.row#brand-home"*/
    ]
  },

  "responsive-layout.mobile": {
    "children": [
      "list-context.image-list#bannerprincipal",
      "flex-layout.row#mini-banners-ambientes",
      "flex-layout.row#shelf01",
      "rich-text#titulovitrinecategory",
      "flex-layout.row#category",
      "flex-layout.row#shelf02",
      "flex-layout.row#shelf03",
      "flex-layout.row#map-home"
      /*"rich-text#titulovitrinebrand",
      "flex-layout.row#brand-home"*/
    ]
  },


"list-context.image-list#bannerprincipal": {
  "children": ["slider-layout#bannerprincipal-images"],
  "props": {
    "height": 520,
    "images": [
      {
        "image": "assets/banners/banner-principal-gminas.png",
        "mobileImage": "assets/banners/banner-principal-gminas.png",
        "title":"banner"
      },
      {
        "image": "assets/banners/banner-principal-gminas.png",
        "mobileImage": "assets/banners/banner-principal-gminas.png",
        "title":"banner"
      }
    ]
  }
},
"slider-layout#bannerprincipal-images": {
  "props": {
    "itemsPerPage": {
      "desktop": 1,
      "tablet": 1,
      "phone": 1
    },
    "infinite": true,
    "showNavigationArrows": "desktopOnly",
    "showPaginationDots":"always",
    "blockClass": "carousel"
    
  }
},

"flex-layout.row#mini-banners-ambientes": {
  "children": ["flex-layout.col#mini-banners-ambientes"],
  "props": {
    "blockClass": "minibanners",
    "marginTop":6,
    "paddingTop": 6,
    "paddingBottom": 6
  }
},
"flex-layout.col#mini-banners-ambientes": {
  "children": ["rich-text#titulominibanners","slider-layout#mini-banners-ambientes"]
},
"slider-layout#mini-banners-ambientes": {
  "children": [
    "flex-layout.col#minibanner-ambientes--item1", "flex-layout.col#minibanner-ambientes--item2","flex-layout.col#minibanner-ambientes--item3","flex-layout.col#minibanner-ambientes--item4","flex-layout.col#minibanner-ambientes--item5","flex-layout.col#minibanner-ambientes--item6"],
  "props": {
    "infinite": true,
    "itemsPerPage": {
      "desktop": 5,
      "tablet": 3,
      "phone": 2
    },
    "showNavigationArrows": "desktopOnly",
    "showPaginationDots":"never",
    "navigationStep": 1,
    "blockClass": "slidercategory"
  }
},

"flex-layout.row#benefits": {
  "children": ["flex-layout.col#benefits"],
  "props": {
    "blockClass": "benefits",
    "marginTop": 6,
    "marginBottom": 6,
    "paddingTop": 5,
    "paddingBottom": 5
  }
},

"flex-layout.col#benefits": {
  "children": ["slider-layout#benefits"]
},

"slider-layout#benefits": {
  "children": [
    "flex-layout.row#tip1", "flex-layout.row#tip2", "flex-layout.row#tip3", "flex-layout.row#tip4"
  ],
  "props": {
    "itemsPerPage": {
      "desktop": 4,
      "tablet": 1
    },
    "showNavigationArrows": "mobileOnly",
    "showPaginationDots":"never",
    "navigationStep": 1,
    "blockClass": "sliderbenefits"
  }
},
"flex-layout.row#category": {
  "children": ["rich-text#titulovitrinecategory","flex-layout.col#category"],
  "props": {
    "blockClass": "slider-category",
    "marginTop":6,
    "paddingTop": 6,
    "paddingBottom": 6
  }
},
"rich-text#titulovitrinecategory": {
  "props": {
    "textPosition": "CENTER",
    "text": "Veja por tipo de produto",
    "blockClass": "titulosvitrine",
    "fullWidth":true
  }
},
"flex-layout.col#category": {
  "children": ["slider-layout#category"]
},
"slider-layout#category": {
  "children": [
    "flex-layout.col#menu-categorias--item1", "flex-layout.col#menu-categorias--item2","flex-layout.col#menu-categorias--item3","flex-layout.col#menu-categorias--item4","flex-layout.col#menu-categorias--item5","flex-layout.col#menu-categorias--item6", "flex-layout.col#menu-categorias--item7","flex-layout.col#menu-categorias--item8","flex-layout.col#menu-categorias--item9"
  ],
  "props": {
    "infinite": true,
    "itemsPerPage": {
      "desktop": 5,
      "tablet": 3,
      "phone": 2
    },
    "showNavigationArrows": "desktopOnly",
    "showPaginationDots":"never",
    "navigationStep": 1,
    "blockClass": "slidertypeproduct"
  }
},
"flex-layout.row#bannerfull": {
  "children": [
    "flex-layout.col#bannerfull"
  ],
  "props": {
    "blockClass": "banner-full",
    "horizontalAlign": "center",
    "preventVerticalStretch": false,
    "marginBottom": "5"
  }
},
"flex-layout.col#bannerfull": {
  "children": ["image#bannerfull"],
  "props": {
    "horizontalAlign": "center",
    "paddingLeft": 1,
    "paddingRight": 1
  }
},
"image#bannerfull": {
  "props": {
    "src": "assets/banners/banner-full-home.png",
    "link": {
      "url": "/",
      "attributeTitle": "Produtos em Ofertas"
    },
    "alt": "Produtos em Ofertas"
  }
},
"rich-text#titulovitrinebrand": {
  "props": {
    "textPosition": "CENTER",
    "text": "Nossas principais marcas",
    "blockClass": "titulosvitrine",
    "fullWidth":true
  }
},
"flex-layout.row#brand-home": {
  "children": ["flex-layout.col#brand"],
  "props": {
    "blockClass": "slider-brand",
    "marginTop":6,
    "paddingTop": 6,
    "paddingBottom": 6
  }
},
"flex-layout.col#brand": {
  "children": ["slider-layout#brand"]
},
"slider-layout#brand": {
  "children": [
    "image#menu-brand01", "image#menu-brand02","image#menu-brand03","image#menu-brand04","image#menu-brand05",
    "image#menu-brand06","image#menu-brand07","image#menu-brand08","image#menu-brand09","image#menu-brand10"
  ],
  "props": {
    "autoplay": {
      "timeout": 5500,
      "stopOnHover": true
    },
    "infinite": true,
    "itemsPerPage": {
      "desktop": 7,
      "tablet": 3,
      "phone": 2
    },
    "showNavigationArrows": "desktopOnly",
    "showPaginationDots":"never",
    "navigationStep": 1,
    "blockClass": "slidercategory"
  }
},
"flex-layout.row#map-home": {
  "children": ["rich-text#titulomaps","sandbox#map-home"],
  "props": {
    "blockClass": "section-map",
    "marginTop":6,
    "paddingTop": 6,
    "paddingBottom": 6
  }
},
"rich-text#titulomaps": {
  "props": {
    "textPosition": "CENTER",
    "text": "Encontre o parceiro mais próximo",
    "blockClass": "titulosvitrine",
    "fullWidth":true
  }
},
"sandbox#map-home": {
  "props": {
  "width": "100%",
  "height": "600px",
  "blockClass":"sandbox-mapa",
  "initialContent": "<iframe src='https://www.google.com/maps/d/embed?mid=1u3pr0BLlLEzww4LZP4rYGfca5xZr16Nk&ehbc=2E312F' style='border-radius: 30px;' width='100%' height='600' style='border:0;' allowfullscreen='' loading='lazy'></iframe>",
  "allowCookies": true
  }
}
}